…
If we instead want to focus only on the subject with the highest predicted probabilities, we might set the groups argument to, say 3000.

``` r
df2 <- get_gain_chart(actual = test_data$label, predicted = predictions,
                      groups = 3000)
#> Converting the vector of actuals to numeric
df2
#> # A tibble: 2,919 x 11
#>    depth   obs cume.obs mean.resp cume.mean.resp cume.pct.of.total  lift
#>    <dbl> <int>    <int>     <dbl>          <dbl>             <dbl> <dbl>
#>  1    0.     8        8     0.500          0.500           0.00534 1800.
#>  2    0.     9       17     0.333          0.412           0.00935 1200.
#>  3    0.     9       26     0.333          0.385           0.0134  1200.
#>  4    0.     9       35     0.222          0.343           0.0160   800.
#>  5    0.     9       44     0.333          0.341           0.0200  1200.
#>  6    0.     9       53     0.444          0.358           0.0254  1600.
#>  7    0.     9       62     0.333          0.355           0.0294  1200.
#>  8    0.     9       71     0.222          0.338           0.0320   800.
#>  9    0.     9       80     0.333          0.338           0.0360  1200.
#> 10    0.     9       89     0.333          0.337           0.0401  1200.
#> # ... with 2,909 more rows, and 4 more variables: cume.lift <dbl>,
#> #   mean.prediction <dbl>, min.prediction <dbl>, max.prediction <dbl>
```
…
